﻿<Cube xmlns:xsd="http://www.w3.org/2001/XMLSchema" xmlns:xsi="http://www.w3.org/2001/XMLSchema-instance" xmlns:ddl2="http://schemas.microsoft.com/analysisservices/2003/engine/2" xmlns:ddl2_2="http://schemas.microsoft.com/analysisservices/2003/engine/2/2" xmlns:ddl100_100="http://schemas.microsoft.com/analysisservices/2008/engine/100/100" xmlns:ddl200="http://schemas.microsoft.com/analysisservices/2010/engine/200" xmlns:ddl200_200="http://schemas.microsoft.com/analysisservices/2010/engine/200/200" xmlns:ddl300="http://schemas.microsoft.com/analysisservices/2011/engine/300" xmlns:ddl300_300="http://schemas.microsoft.com/analysisservices/2011/engine/300/300" xmlns:ddl400="http://schemas.microsoft.com/analysisservices/2012/engine/400" xmlns:ddl400_400="http://schemas.microsoft.com/analysisservices/2012/engine/400/400" xmlns:ddl500="http://schemas.microsoft.com/analysisservices/2013/engine/500" xmlns:ddl500_500="http://schemas.microsoft.com/analysisservices/2013/engine/500/500" xmlns:dwd="http://schemas.microsoft.com/DataWarehouse/Designer/1.0" dwd:design-time-name="88145bce-275c-4cd3-a72d-9db2413429ff" xmlns="http://schemas.microsoft.com/analysisservices/2003/engine">
  <ID>DWNorthwindOrdersV1</ID>
  <Name>DWNorthwindOrdersV1</Name>
  <CreatedTimestamp>0001-01-01T05:00:00Z</CreatedTimestamp>
  <LastSchemaUpdate>0001-01-01T05:00:00Z</LastSchemaUpdate>
  <Annotations>
    <Annotation>
      <Name>http://schemas.microsoft.com/DataWarehouse/Designer/1.0:DiagramLayout</Name>
      <Value>
        <dds xmlns="">
          <diagram fontclsid="{0BE35203-8F91-11CE-9DE3-00AA004BB851}" mouseiconclsid="{0BE35204-8F91-11CE-9DE3-00AA004BB851}" defaultlayout="MSDDS.Rectilinear" defaultlineroute="MSDDS.Rectilinear" version="7" nextobject="26" scale="100" pagebreakanchorx="0" pagebreakanchory="0" pagebreaksizex="0" pagebreaksizey="0" scrollleft="-1698" scrolltop="-716" gridx="150" gridy="150" marginx="5000" marginy="5000" zoom="100" x="35322" y="21034" backcolor="16777215" defaultpersistence="2" PrintPageNumbersMode="3" PrintMarginTop="0" PrintMarginBottom="635" PrintMarginLeft="0" PrintMarginRight="0" marqueeselectionmode="0" mousepointer="0" snaptogrid="0" autotypeannotation="1" showscrollbars="0" viewpagebreaks="0" donotforceconnectorsbehindshapes="1" backpictureclsid="{00000000-0000-0000-0000-000000000000}">
            <font>
              <ddsxmlobjectstreamwrapper binary="01000000900144420100065461686f6d61" />
            </font>
            <mouseicon>
              <ddsxmlobjectstreamwrapper binary="6c74000000000000" />
            </mouseicon>
          </diagram>
          <layoutmanager>
            <ddsxmlobj />
          </layoutmanager>
          <ddscontrol controlprogid="DdsShapes.DdsObjectManagedBridge.3" tooltip="FactOrders" left="5516" top="5549" logicalid="13" controlid="1" masterid="0" hint1="0" hint2="0" width="3440" height="4842" noresize="0" nomove="0" nodefaultattachpoints="0" autodrag="1" usedefaultiddshape="1" selectable="1" showselectionhandles="1" allownudging="1" isannotation="0" dontautolayout="0" groupcollapsed="0" tabstop="1" visible="1" snaptogrid="0">
            <control>
              <ddsxmlobjectstreaminitwrapper binary="000c0000700d0000ea120000" />
            </control>
            <layoutobject>
              <ddsxmlobj>
                <property name="LogicalObject" value="dbo_FactOrders" vartype="8" />
              </ddsxmlobj>
            </layoutobject>
            <shape groupshapeid="0" groupnode="0" />
          </ddscontrol>
          <ddscontrol controlprogid="DdsShapes.DdsObjectManagedBridge.3" tooltip="DimEmployees" left="5648" top="0" logicalid="14" controlid="2" masterid="0" hint1="0" hint2="0" width="3175" height="3149" noresize="0" nomove="0" nodefaultattachpoints="0" autodrag="1" usedefaultiddshape="1" selectable="1" showselectionhandles="1" allownudging="1" isannotation="0" dontautolayout="0" groupcollapsed="0" tabstop="1" visible="1" snaptogrid="0">
            <control>
              <ddsxmlobjectstreaminitwrapper binary="000c0000670c00004d0c0000" />
            </control>
            <layoutobject>
              <ddsxmlobj>
                <property name="LogicalObject" value="dbo_DimEmployees" vartype="8" />
              </ddsxmlobj>
            </layoutobject>
            <shape groupshapeid="0" groupnode="0" />
          </ddscontrol>
          <ddscontrol controlprogid="DdsShapes.DdsObjectManagedBridge.3" tooltip="DimDates" left="20" top="5549" logicalid="15" controlid="3" masterid="0" hint1="0" hint2="0" width="3096" height="4842" noresize="0" nomove="0" nodefaultattachpoints="0" autodrag="1" usedefaultiddshape="1" selectable="1" showselectionhandles="1" allownudging="1" isannotation="0" dontautolayout="0" groupcollapsed="0" tabstop="1" visible="1" snaptogrid="0">
            <control>
              <ddsxmlobjectstreaminitwrapper binary="000c0000180c0000ea120000" />
            </control>
            <layoutobject>
              <ddsxmlobj>
                <property name="LogicalObject" value="dbo_DimDates" vartype="8" />
              </ddsxmlobj>
            </layoutobject>
            <shape groupshapeid="0" groupnode="0" />
          </ddscontrol>
          <ddscontrol controlprogid="DdsShapes.DdsObjectManagedBridge.3" tooltip="DimProducts" left="11356" top="6184" logicalid="16" controlid="4" masterid="0" hint1="0" hint2="0" width="4048" height="3572" noresize="0" nomove="0" nodefaultattachpoints="0" autodrag="1" usedefaultiddshape="1" selectable="1" showselectionhandles="1" allownudging="1" isannotation="0" dontautolayout="0" groupcollapsed="0" tabstop="1" visible="1" snaptogrid="0">
            <control>
              <ddsxmlobjectstreaminitwrapper binary="000c0000d00f0000f40d0000" />
            </control>
            <layoutobject>
              <ddsxmlobj>
                <property name="LogicalObject" value="dbo_DimProducts" vartype="8" />
              </ddsxmlobj>
            </layoutobject>
            <shape groupshapeid="0" groupnode="0" />
          </ddscontrol>
          <ddscontrol controlprogid="DdsShapes.DdsObjectManagedBridge.3" tooltip="DimCustomers" left="5569" top="12791" logicalid="17" controlid="5" masterid="0" hint1="0" hint2="0" width="3334" height="3572" noresize="0" nomove="0" nodefaultattachpoints="0" autodrag="1" usedefaultiddshape="1" selectable="1" showselectionhandles="1" allownudging="1" isannotation="0" dontautolayout="0" groupcollapsed="0" tabstop="1" visible="1" snaptogrid="0">
            <control>
              <ddsxmlobjectstreaminitwrapper binary="000c0000060d0000f40d0000" />
            </control>
            <layoutobject>
              <ddsxmlobj>
                <property name="LogicalObject" value="dbo_DimCustomers" vartype="8" />
              </ddsxmlobj>
            </layoutobject>
            <shape groupshapeid="0" groupnode="0" />
          </ddscontrol>
          <ddscontrol controlprogid="MSDDS.Polyline" left="2816" top="7021" logicalid="18" controlid="6" masterid="0" hint1="0" hint2="0" width="3000" height="799" noresize="0" nomove="0" nodefaultattachpoints="1" autodrag="0" usedefaultiddshape="0" selectable="1" showselectionhandles="0" allownudging="1" isannotation="0" dontautolayout="0" groupcollapsed="0" tabstop="1" visible="1" snaptogrid="0">
            <control>
              <ddsxmlobj>
                <polyline endtypedst="6" endtypesrc="3" usercolor="0" linestyle="0" linerender="1" customendtypedstid="0" customendtypesrcid="0" adornsvisible="1" />
              </ddsxmlobj>
            </control>
            <layoutobject>
              <ddsxmlobj>
                <property name="LogicalObject" value="dataSet.Relations[FK_FactOrders_DimDates_RequiredDate]" vartype="8" />
                <property name="Virtual" value="0" vartype="11" />
                <property name="VisibleAP" value="0" vartype="3" />
              </ddsxmlobj>
            </layoutobject>
            <connector lineroutestyle="MSDDS.Rectilinear" sourceid="3" destid="1" sourceattachpoint="17" destattachpoint="16" segmenteditmode="0" bendpointeditmode="0" bendpointvisibility="0" relatedid="0" virtual="0">
              <point x="3116" y="7420" />
              <point x="5516" y="7420" />
            </connector>
          </ddscontrol>
          <ddscontrol controlprogid="MSDDS.Polyline" left="2816" top="8121" logicalid="19" controlid="7" masterid="0" hint1="0" hint2="0" width="3000" height="799" noresize="0" nomove="0" nodefaultattachpoints="1" autodrag="0" usedefaultiddshape="0" selectable="1" showselectionhandles="0" allownudging="1" isannotation="0" dontautolayout="0" groupcollapsed="0" tabstop="1" visible="1" snaptogrid="0">
            <control>
              <ddsxmlobj>
                <polyline endtypedst="6" endtypesrc="3" usercolor="0" linestyle="0" linerender="1" customendtypedstid="0" customendtypesrcid="0" adornsvisible="1" />
              </ddsxmlobj>
            </control>
            <layoutobject>
              <ddsxmlobj>
                <property name="LogicalObject" value="dataSet.Relations[FK_FactOrders_DimDates_OrderDate]" vartype="8" />
                <property name="Virtual" value="0" vartype="11" />
                <property name="VisibleAP" value="0" vartype="3" />
              </ddsxmlobj>
            </layoutobject>
            <connector lineroutestyle="MSDDS.Rectilinear" sourceid="3" destid="1" sourceattachpoint="21" destattachpoint="20" segmenteditmode="0" bendpointeditmode="0" bendpointvisibility="0" relatedid="0" virtual="0">
              <point x="3116" y="8520" />
              <point x="5516" y="8520" />
            </connector>
          </ddscontrol>
          <ddscontrol controlprogid="MSDDS.Polyline" left="6836" top="2650" logicalid="20" controlid="8" masterid="0" hint1="0" hint2="0" width="799" height="3199" noresize="0" nomove="0" nodefaultattachpoints="1" autodrag="0" usedefaultiddshape="0" selectable="1" showselectionhandles="0" allownudging="1" isannotation="0" dontautolayout="0" groupcollapsed="0" tabstop="1" visible="1" snaptogrid="0">
            <control>
              <ddsxmlobj>
                <polyline endtypedst="6" endtypesrc="3" usercolor="0" linestyle="0" linerender="1" customendtypedstid="0" customendtypesrcid="0" adornsvisible="1" />
              </ddsxmlobj>
            </control>
            <layoutobject>
              <ddsxmlobj>
                <property name="LogicalObject" value="dataSet.Relations[FK_FactOrders_DimEmployees]" vartype="8" />
                <property name="Virtual" value="0" vartype="11" />
                <property name="VisibleAP" value="0" vartype="3" />
              </ddsxmlobj>
            </layoutobject>
            <connector lineroutestyle="MSDDS.Rectilinear" sourceid="2" destid="1" sourceattachpoint="5" destattachpoint="4" segmenteditmode="0" bendpointeditmode="0" bendpointvisibility="0" relatedid="0" virtual="0">
              <point x="7235" y="3149" />
              <point x="7235" y="4349" />
              <point x="7236" y="4349" />
              <point x="7236" y="5549" />
            </connector>
          </ddscontrol>
          <ddscontrol controlprogid="MSDDS.Polyline" left="2816" top="7571" logicalid="21" controlid="9" masterid="0" hint1="0" hint2="0" width="3000" height="799" noresize="0" nomove="0" nodefaultattachpoints="1" autodrag="0" usedefaultiddshape="0" selectable="1" showselectionhandles="0" allownudging="1" isannotation="0" dontautolayout="0" groupcollapsed="0" tabstop="1" visible="1" snaptogrid="0">
            <control>
              <ddsxmlobj>
                <polyline endtypedst="6" endtypesrc="3" usercolor="0" linestyle="0" linerender="1" customendtypedstid="0" customendtypesrcid="0" adornsvisible="1" />
              </ddsxmlobj>
            </control>
            <layoutobject>
              <ddsxmlobj>
                <property name="LogicalObject" value="dataSet.Relations[FK_FactOrders_DimDates_ShippedDate]" vartype="8" />
                <property name="Virtual" value="0" vartype="11" />
                <property name="VisibleAP" value="0" vartype="3" />
              </ddsxmlobj>
            </layoutobject>
            <connector lineroutestyle="MSDDS.Rectilinear" sourceid="3" destid="1" sourceattachpoint="19" destattachpoint="18" segmenteditmode="0" bendpointeditmode="0" bendpointvisibility="0" relatedid="0" virtual="0">
              <point x="3116" y="7970" />
              <point x="5516" y="7970" />
            </connector>
          </ddscontrol>
          <ddscontrol controlprogid="MSDDS.Polyline" left="6837" top="10091" logicalid="22" controlid="10" masterid="0" hint1="0" hint2="0" width="799" height="3200" noresize="0" nomove="0" nodefaultattachpoints="1" autodrag="0" usedefaultiddshape="0" selectable="1" showselectionhandles="0" allownudging="1" isannotation="0" dontautolayout="0" groupcollapsed="0" tabstop="1" visible="1" snaptogrid="0">
            <control>
              <ddsxmlobj>
                <polyline endtypedst="6" endtypesrc="3" usercolor="0" linestyle="0" linerender="1" customendtypedstid="0" customendtypesrcid="0" adornsvisible="1" />
              </ddsxmlobj>
            </control>
            <layoutobject>
              <ddsxmlobj>
                <property name="LogicalObject" value="dataSet.Relations[FK_FactOrders_DimCustomers]" vartype="8" />
                <property name="Virtual" value="0" vartype="11" />
                <property name="VisibleAP" value="0" vartype="3" />
              </ddsxmlobj>
            </layoutobject>
            <connector lineroutestyle="MSDDS.Rectilinear" sourceid="5" destid="1" sourceattachpoint="4" destattachpoint="5" segmenteditmode="0" bendpointeditmode="0" bendpointvisibility="0" relatedid="0" virtual="0">
              <point x="7236" y="12791" />
              <point x="7236" y="10391" />
            </connector>
          </ddscontrol>
          <ddscontrol controlprogid="MSDDS.Polyline" left="8656" top="7571" logicalid="23" controlid="11" masterid="0" hint1="0" hint2="0" width="3000" height="799" noresize="0" nomove="0" nodefaultattachpoints="1" autodrag="0" usedefaultiddshape="0" selectable="1" showselectionhandles="0" allownudging="1" isannotation="0" dontautolayout="0" groupcollapsed="0" tabstop="1" visible="1" snaptogrid="0">
            <control>
              <ddsxmlobj>
                <polyline endtypedst="6" endtypesrc="3" usercolor="0" linestyle="0" linerender="1" customendtypedstid="0" customendtypesrcid="0" adornsvisible="1" />
              </ddsxmlobj>
            </control>
            <layoutobject>
              <ddsxmlobj>
                <property name="LogicalObject" value="dataSet.Relations[FK_FactOrders_DimProducts]" vartype="8" />
                <property name="Virtual" value="0" vartype="11" />
                <property name="VisibleAP" value="0" vartype="3" />
              </ddsxmlobj>
            </layoutobject>
            <connector lineroutestyle="MSDDS.Rectilinear" sourceid="4" destid="1" sourceattachpoint="20" destattachpoint="19" segmenteditmode="0" bendpointeditmode="0" bendpointvisibility="0" relatedid="0" virtual="0">
              <point x="11356" y="7970" />
              <point x="8956" y="7970" />
            </connector>
          </ddscontrol>
          <ddscontrol controlprogid="MSDDS.Polyline" left="4348" top="-1300" logicalid="24" controlid="12" masterid="0" hint1="0" hint2="0" width="2637" height="2724" noresize="0" nomove="0" nodefaultattachpoints="1" autodrag="0" usedefaultiddshape="0" selectable="1" showselectionhandles="0" allownudging="1" isannotation="0" dontautolayout="0" groupcollapsed="0" tabstop="1" visible="1" snaptogrid="0">
            <control>
              <ddsxmlobj>
                <polyline endtypedst="6" endtypesrc="3" usercolor="0" linestyle="0" linerender="1" customendtypedstid="0" customendtypesrcid="0" adornsvisible="1" />
              </ddsxmlobj>
            </control>
            <layoutobject>
              <ddsxmlobj>
                <property name="LogicalObject" value="dataSet.Relations[FK_DimEmployees_DimEmployees]" vartype="8" />
                <property name="Virtual" value="0" vartype="11" />
                <property name="VisibleAP" value="0" vartype="3" />
              </ddsxmlobj>
            </layoutobject>
            <connector lineroutestyle="MSDDS.Rectilinear" sourceid="2" destid="2" sourceattachpoint="12" destattachpoint="2" segmenteditmode="0" bendpointeditmode="0" bendpointvisibility="0" relatedid="0" virtual="0">
              <point x="5648" y="1024" />
              <point x="4648" y="1024" />
              <point x="4648" y="-1000" />
              <point x="6685" y="-1000" />
              <point x="6685" y="0" />
            </connector>
          </ddscontrol>
        </dds>
      </Value>
    </Annotation>
    <Annotation>
      <Name>http://schemas.microsoft.com/DataWarehouse/Designer/1.0:ShowFriendlyNames</Name>
      <Value>true</Value>
    </Annotation>
    <Annotation>
      <Name>http://schemas.microsoft.com/DataWarehouse/Designer/1.0:ShowRelationshipNames</Name>
      <Value>false</Value>
    </Annotation>
    <Annotation>
      <Name>http://schemas.microsoft.com/DataWarehouse/Designer/1.0:UseDiagramDefaultLayout</Name>
      <Value>true</Value>
    </Annotation>
    <Annotation>
      <Name>http://schemas.microsoft.com/DataWarehouse/Designer/1.0:DiagramViewPortLeft</Name>
      <Value>-1698</Value>
    </Annotation>
    <Annotation>
      <Name>http://schemas.microsoft.com/DataWarehouse/Designer/1.0:DiagramViewPortTop</Name>
      <Value>-716</Value>
    </Annotation>
    <Annotation>
      <Name>http://schemas.microsoft.com/DataWarehouse/Designer/1.0:DiagramBoundingLeft</Name>
      <Value>20</Value>
    </Annotation>
    <Annotation>
      <Name>http://schemas.microsoft.com/DataWarehouse/Designer/1.0:DiagramBoundingTop</Name>
      <Value>0</Value>
    </Annotation>
    <Annotation>
      <Name>http://schemas.microsoft.com/DataWarehouse/Designer/1.0:DiagramZoom</Name>
      <Value>100</Value>
    </Annotation>
  </Annotations>
  <LastProcessed>0001-01-01T05:00:00Z</LastProcessed>
  <State>Unprocessed</State>
  <Dimensions>
    <Dimension dwd:design-time-name="d5430fdd-3915-411c-8399-4a7d7a7fd6bc">
      <ID>DimOrders</ID>
      <Name>DimOrders</Name>
      <DimensionID>DimOrders</DimensionID>
      <Attributes>
        <Attribute dwd:design-time-name="f6f73979-cdcc-49bf-af94-ac3f94f9d3f6">
          <AttributeID>Order ID</AttributeID>
        </Attribute>
      </Attributes>
    </Dimension>
    <Dimension dwd:design-time-name="5a82740a-c169-48ea-b3c5-7d8001e1b4bc">
      <ID>Required Date</ID>
      <Name>Required Date</Name>
      <DimensionID>DimDates</DimensionID>
      <Attributes>
        <Attribute dwd:design-time-name="0c761ecc-baff-447c-8729-25983be68252">
          <AttributeID>Date Key</AttributeID>
        </Attribute>
        <Attribute dwd:design-time-name="c0792d6f-49f1-42f0-8635-9a29b438d24f">
          <AttributeID>Full Date</AttributeID>
        </Attribute>
        <Attribute dwd:design-time-name="0f6598c3-2746-4ae8-9a7b-5554f91dc0a5">
          <AttributeID>Month</AttributeID>
        </Attribute>
        <Attribute dwd:design-time-name="96960628-182a-4dbe-8fc6-27d2379453ac">
          <AttributeID>Quarter</AttributeID>
        </Attribute>
        <Attribute dwd:design-time-name="25c6f7ae-2c8f-402a-a467-52b23a3c2f14">
          <AttributeID>Year</AttributeID>
        </Attribute>
      </Attributes>
      <Hierarchies>
        <Hierarchy dwd:design-time-name="415e6259-20b4-41a2-b961-237e95913132">
          <HierarchyID>Hierarchy</HierarchyID>
        </Hierarchy>
      </Hierarchies>
    </Dimension>
    <Dimension dwd:design-time-name="3b37ff61-2359-4030-954d-34d19112d332">
      <ID>Order Date</ID>
      <Name>Order Date</Name>
      <DimensionID>DimDates</DimensionID>
      <Attributes>
        <Attribute dwd:design-time-name="6dc7c551-8b84-491b-b0b9-2447b4ca66d2">
          <AttributeID>Date Key</AttributeID>
        </Attribute>
        <Attribute dwd:design-time-name="76ae5551-3bfc-4db3-a0bb-1d13f931c4dc">
          <AttributeID>Full Date</AttributeID>
        </Attribute>
        <Attribute dwd:design-time-name="e990ae0d-a4c5-4b92-9a66-6713302ca686">
          <AttributeID>Month</AttributeID>
        </Attribute>
        <Attribute dwd:design-time-name="fa3fdf73-6bb2-41b4-8fc5-fde2ba134d52">
          <AttributeID>Quarter</AttributeID>
        </Attribute>
        <Attribute dwd:design-time-name="ab406953-517e-4621-9520-93406d5685f1">
          <AttributeID>Year</AttributeID>
        </Attribute>
      </Attributes>
      <Hierarchies>
        <Hierarchy dwd:design-time-name="ffbfccfa-90f3-4b36-92bd-78b5d7f89968">
          <HierarchyID>Hierarchy</HierarchyID>
        </Hierarchy>
      </Hierarchies>
    </Dimension>
    <Dimension dwd:design-time-name="4c8e8741-16f4-413e-93e4-053a0df037ae">
      <ID>DimEmployees</ID>
      <Name>DimEmployees</Name>
      <DimensionID>DimEmployees</DimensionID>
      <Attributes>
        <Attribute dwd:design-time-name="66fca7c3-89bf-438f-aed1-b525f2873dd1">
          <AttributeID>Employee Key</AttributeID>
        </Attribute>
        <Attribute dwd:design-time-name="7b48c7b5-fc81-4d3d-aa84-a70e8e122469">
          <AttributeID>Manager Key</AttributeID>
        </Attribute>
        <Attribute dwd:design-time-name="31bb6bd8-5830-45b1-b7f3-05104dabc5f8">
          <AttributeID>Employee ID</AttributeID>
        </Attribute>
        <Attribute dwd:design-time-name="345fd40d-fa52-4cf0-b4c9-32352941650b">
          <AttributeID>Manager ID</AttributeID>
        </Attribute>
      </Attributes>
    </Dimension>
    <Dimension dwd:design-time-name="759b1b8c-37cf-43b7-9c41-6e03314d6f3c">
      <ID>Shipped Date</ID>
      <Name>Shipped Date</Name>
      <DimensionID>DimDates</DimensionID>
      <Attributes>
        <Attribute dwd:design-time-name="4ebda62c-7a6c-4f12-b693-c46c8feb654b">
          <AttributeID>Date Key</AttributeID>
        </Attribute>
        <Attribute dwd:design-time-name="a8c54f68-13fa-4112-9b0b-1bb17e65b76b">
          <AttributeID>Full Date</AttributeID>
        </Attribute>
        <Attribute dwd:design-time-name="2d4f9917-c462-4f57-b304-f778562842cd">
          <AttributeID>Month</AttributeID>
        </Attribute>
        <Attribute dwd:design-time-name="4a9b7fc6-6ad5-4294-8b35-5b0b4b596a53">
          <AttributeID>Quarter</AttributeID>
        </Attribute>
        <Attribute dwd:design-time-name="5b89de1c-e83a-4213-a284-ac26599600ce">
          <AttributeID>Year</AttributeID>
        </Attribute>
      </Attributes>
      <Hierarchies>
        <Hierarchy dwd:design-time-name="a71352c0-18ca-417e-83ed-307baa3e722c">
          <HierarchyID>Hierarchy</HierarchyID>
        </Hierarchy>
      </Hierarchies>
    </Dimension>
    <Dimension dwd:design-time-name="bb214855-92e3-4432-ae22-6f0c646168f6">
      <ID>DimCustomers</ID>
      <Name>DimCustomers</Name>
      <DimensionID>DimCustomers</DimensionID>
      <Attributes>
        <Attribute dwd:design-time-name="07f6d10f-779d-431d-b299-58ac4d2bf1e8">
          <AttributeID>Customer Key</AttributeID>
        </Attribute>
        <Attribute dwd:design-time-name="282ebc39-8bc1-4a3a-a587-16c0da675170">
          <AttributeID>Customer ID</AttributeID>
        </Attribute>
        <Attribute dwd:design-time-name="92d8d9d3-d3b7-4a8a-b8ce-d5968cd803cd">
          <AttributeID>Customer City</AttributeID>
        </Attribute>
        <Attribute dwd:design-time-name="a9ed3c5f-554e-4fbc-9b7f-101703e0e469">
          <AttributeID>Customer Region</AttributeID>
        </Attribute>
        <Attribute dwd:design-time-name="3430f390-5788-4c22-bb16-c028d18520b6">
          <AttributeID>Customer Country</AttributeID>
        </Attribute>
      </Attributes>
      <Hierarchies>
        <Hierarchy dwd:design-time-name="0b37fa1e-1584-4f28-b7fb-859abbfb5f7e">
          <HierarchyID>Hierarchy</HierarchyID>
        </Hierarchy>
      </Hierarchies>
    </Dimension>
    <Dimension dwd:design-time-name="a3ab673b-6d25-43e7-bd4c-b0d66937845c">
      <ID>DimProducts</ID>
      <Name>DimProducts</Name>
      <DimensionID>DimProducts</DimensionID>
      <Attributes>
        <Attribute dwd:design-time-name="32227b27-4d1c-40f1-9466-8c91f620e9cf">
          <AttributeID>Product Key</AttributeID>
        </Attribute>
        <Attribute dwd:design-time-name="42c3b881-5410-44b4-bdcf-3ff158ca5a32">
          <AttributeID>Product ID</AttributeID>
        </Attribute>
        <Attribute dwd:design-time-name="d2749e10-8c66-4fcc-9857-fff930dbc11e">
          <AttributeID>Product Category</AttributeID>
        </Attribute>
        <Attribute dwd:design-time-name="69b04951-9b0b-46e4-8eef-233fb8c7d383">
          <AttributeID>Product Std Price</AttributeID>
        </Attribute>
        <Attribute dwd:design-time-name="81be5766-a5ed-4020-80b7-c1ab4ffb72b2">
          <AttributeID>Product Is Discontinued</AttributeID>
        </Attribute>
      </Attributes>
      <Hierarchies>
        <Hierarchy dwd:design-time-name="64ae4d55-e62d-46a1-98f7-bd7b5fa15100">
          <HierarchyID>Hierarchy</HierarchyID>
        </Hierarchy>
      </Hierarchies>
    </Dimension>
  </Dimensions>
  <MeasureGroups>
    <MeasureGroup dwd:design-time-name="f8ed88d6-5366-487c-a6bf-9d1d4fd0bfd9">
      <ID>Fact Orders</ID>
      <Name>Orders</Name>
      <CreatedTimestamp>0001-01-01T05:00:00Z</CreatedTimestamp>
      <LastSchemaUpdate>0001-01-01T05:00:00Z</LastSchemaUpdate>
      <LastProcessed>0001-01-01T05:00:00Z</LastProcessed>
      <State>Unprocessed</State>
      <Measures>
        <Measure dwd:design-time-name="01b651f8-2862-492d-b0af-76f34fd7b20a">
          <ID>Price On Order</ID>
          <Name>PriceOnOrder</Name>
          <Source dwd:design-time-name="d849f03a-340e-47f5-9a1f-dccab9a964ed">
            <DataType>Double</DataType>
            <Source xsi:type="ColumnBinding" dwd:design-time-name="66f3148f-4207-4435-aab9-3da90cd27615">
              <TableID>dbo_FactOrders</TableID>
              <ColumnID>PriceOnOrder</ColumnID>
            </Source>
          </Source>
          <FormatString>Standard</FormatString>
        </Measure>
        <Measure dwd:design-time-name="c4eca5ec-0d24-4624-a648-b0abeb01ecbb">
          <ID>Quantity On Order</ID>
          <Name>QuantityOnOrder</Name>
          <Source dwd:design-time-name="b11107c8-1906-4cce-97bc-e87cfb604af8">
            <DataType>Integer</DataType>
            <Source xsi:type="ColumnBinding" dwd:design-time-name="b9c1353e-b0de-4efe-aa22-c3b40867dcf7">
              <TableID>dbo_FactOrders</TableID>
              <ColumnID>QuantityOnOrder</ColumnID>
            </Source>
          </Source>
          <FormatString>Standard</FormatString>
        </Measure>
      </Measures>
      <StorageMode>Molap</StorageMode>
      <ProcessingMode>Regular</ProcessingMode>
      <Dimensions>
        <Dimension xsi:type="RegularMeasureGroupDimension" dwd:design-time-name="fabf24f3-ac8f-4478-9de3-cbf058dcf2ed">
          <CubeDimensionID>Required Date</CubeDimensionID>
          <Attributes>
            <Attribute dwd:design-time-name="ef0825f9-afcd-44da-9122-840b3b1bb760">
              <AttributeID>Date Key</AttributeID>
              <KeyColumns>
                <KeyColumn dwd:design-time-name="67a44bcf-8b77-45cc-86ad-e74b5445df02">
                  <DataType>Integer</DataType>
                  <Source xsi:type="ColumnBinding" dwd:design-time-name="9c868b12-6e03-471a-a615-61a6186ad3f0">
                    <TableID>dbo_FactOrders</TableID>
                    <ColumnID>RequiredDateKey</ColumnID>
                  </Source>
                </KeyColumn>
              </KeyColumns>
              <Type>Granularity</Type>
            </Attribute>
          </Attributes>
        </Dimension>
        <Dimension xsi:type="RegularMeasureGroupDimension" dwd:design-time-name="74936c1f-89d8-4bd6-8cb9-07d5d8300508">
          <CubeDimensionID>Order Date</CubeDimensionID>
          <Attributes>
            <Attribute dwd:design-time-name="8459fdfd-b917-4306-94e9-d8839f489b36">
              <AttributeID>Date Key</AttributeID>
              <KeyColumns>
                <KeyColumn dwd:design-time-name="5214b1e6-1515-4bf0-9a09-fd5694eee333">
                  <DataType>Integer</DataType>
                  <Source xsi:type="ColumnBinding" dwd:design-time-name="f299a1d9-01a0-4e2f-b583-54ed5cd26c71">
                    <TableID>dbo_FactOrders</TableID>
                    <ColumnID>OrderDateKey</ColumnID>
                  </Source>
                </KeyColumn>
              </KeyColumns>
              <Type>Granularity</Type>
            </Attribute>
          </Attributes>
        </Dimension>
        <Dimension xsi:type="RegularMeasureGroupDimension" dwd:design-time-name="d029f15b-2bba-4b89-9a75-61e4cb89cdb1">
          <CubeDimensionID>DimEmployees</CubeDimensionID>
          <Attributes>
            <Attribute dwd:design-time-name="e3c67635-67e3-4470-ab62-85ff4cc08241">
              <AttributeID>Employee Key</AttributeID>
              <KeyColumns>
                <KeyColumn dwd:design-time-name="53e52c53-77bc-4536-8b60-fc10ef531b3d">
                  <DataType>Integer</DataType>
                  <Source xsi:type="ColumnBinding" dwd:design-time-name="f8991b56-e3ef-487e-afd4-bf0eb301c89d">
                    <TableID>dbo_FactOrders</TableID>
                    <ColumnID>EmployeeKey</ColumnID>
                  </Source>
                </KeyColumn>
              </KeyColumns>
              <Type>Granularity</Type>
            </Attribute>
          </Attributes>
        </Dimension>
        <Dimension xsi:type="RegularMeasureGroupDimension" dwd:design-time-name="35a4c9dc-ef26-4962-8535-7f9568714b4d">
          <CubeDimensionID>Shipped Date</CubeDimensionID>
          <Attributes>
            <Attribute dwd:design-time-name="d23f1199-f1fe-44bf-a14f-d4e8a5c7e811">
              <AttributeID>Date Key</AttributeID>
              <KeyColumns>
                <KeyColumn dwd:design-time-name="bbac8473-aee7-48be-8e90-bc13f89a75e8">
                  <DataType>Integer</DataType>
                  <Source xsi:type="ColumnBinding" dwd:design-time-name="53530f7d-264d-4c25-900b-1ceccf560dd1">
                    <TableID>dbo_FactOrders</TableID>
                    <ColumnID>ShippedDateKey</ColumnID>
                  </Source>
                </KeyColumn>
              </KeyColumns>
              <Type>Granularity</Type>
            </Attribute>
          </Attributes>
        </Dimension>
        <Dimension xsi:type="RegularMeasureGroupDimension" dwd:design-time-name="4602d815-da79-4e7e-b071-cacb36fae53e">
          <CubeDimensionID>DimCustomers</CubeDimensionID>
          <Attributes>
            <Attribute dwd:design-time-name="ee97bf23-2704-4261-82ae-7c3e8f1c9aab">
              <AttributeID>Customer Key</AttributeID>
              <KeyColumns>
                <KeyColumn dwd:design-time-name="724cea7f-6ad7-441e-b4c3-d455dc321650">
                  <DataType>Integer</DataType>
                  <Source xsi:type="ColumnBinding" dwd:design-time-name="10045488-f27f-4995-b0d0-d671cc3c5b85">
                    <TableID>dbo_FactOrders</TableID>
                    <ColumnID>CustomerKey</ColumnID>
                  </Source>
                </KeyColumn>
              </KeyColumns>
              <Type>Granularity</Type>
            </Attribute>
          </Attributes>
        </Dimension>
        <Dimension xsi:type="RegularMeasureGroupDimension" dwd:design-time-name="3ce0b888-6aa6-4082-8dbe-37e4c4f03f30">
          <CubeDimensionID>DimProducts</CubeDimensionID>
          <Attributes>
            <Attribute dwd:design-time-name="557d0494-f715-444e-b27d-3df5d168b292">
              <AttributeID>Product Key</AttributeID>
              <KeyColumns>
                <KeyColumn dwd:design-time-name="1b263763-2823-4bfb-85c3-a2dd3f6d3b6a">
                  <DataType>Integer</DataType>
                  <Source xsi:type="ColumnBinding" dwd:design-time-name="c84b2f7c-412e-4a99-a79c-f2a1c6db38a8">
                    <TableID>dbo_FactOrders</TableID>
                    <ColumnID>ProductKey</ColumnID>
                  </Source>
                </KeyColumn>
              </KeyColumns>
              <Type>Granularity</Type>
            </Attribute>
          </Attributes>
        </Dimension>
        <Dimension xsi:type="DegenerateMeasureGroupDimension" dwd:design-time-name="83454676-28ac-4c54-86c5-06aea525c4f4">
          <CubeDimensionID>DimOrders</CubeDimensionID>
          <Attributes>
            <Attribute dwd:design-time-name="791bafeb-dc0d-4ed0-82e6-46615fe904d3">
              <AttributeID>Order ID</AttributeID>
              <KeyColumns>
                <KeyColumn dwd:design-time-name="8a70fc51-5fd6-46a1-b5d2-891fe24b3475">
                  <DataType>Integer</DataType>
                  <Source xsi:type="ColumnBinding" dwd:design-time-name="3d6401f6-bbff-4d77-a388-366753e0a74d">
                    <TableID>dbo_FactOrders</TableID>
                    <ColumnID>OrderID</ColumnID>
                  </Source>
                </KeyColumn>
              </KeyColumns>
              <Type>Granularity</Type>
            </Attribute>
          </Attributes>
        </Dimension>
      </Dimensions>
      <Partitions />
    </MeasureGroup>
  </MeasureGroups>
  <Source dwd:design-time-name="d68a2eff-29db-4464-a81f-eb7b58e96ec5">
    <DataSourceViewID>DWNorthwindOrdersTables</DataSourceViewID>
  </Source>
  <Kpis>
    <Kpi dwd:design-time-name="967afabc-c73f-4805-ba8f-66e0dd08fba3">
      <ID>KPI</ID>
      <Name>OrdersQtyKPI</Name>
      <AssociatedMeasureGroupID>Fact Orders</AssociatedMeasureGroupID>
      <Value>[Measures].[Orders]</Value>
      <Goal>"foo goal expression"</Goal>
      <Status>case
    when [QuantityOnOrder] &lt; 2 or null then -1
    when [QuantityOnOrder] &gt;= 2 and [QuantityOnOrder] &lt; 5 then 0
    when [QuantityOnOrder] &gt;= 5 then 1
end</Status>
      <TrendGraphic>Standard Arrow</TrendGraphic>
      <StatusGraphic>Road Signs</StatusGraphic>
    </Kpi>
  </Kpis>
</Cube>